{
  "cluster": "${ECS_AGENT_CLUSTER}",
  "launchType": "FARGATE",
  "networkConfiguration": {
    "awsvpcConfiguration": {
      "subnets": [
        "${KANIKO_SUBNET_1}",
        "${KANIKO_SUBNET_2}",
        "${KANIKO_SUBNET_3}"
      ],
      "securityGroups": ["${AGENT_SECURITY_GROUP_ID}"],
      "assignPublicIp": "DISABLED"
    }
  },
  "overrides": {
    "containerOverrides": [
      {
        "name": "kaniko",
        "command": [
          "--context",
          "s3://${BUCKET_FRONTEND}/kaniko-context/context.tar.gz",
          "--context-sub-path",
          "./sources/frontend/mosar-frontend/",
          "--dockerfile",
          "/frontend.dockerfile",
          "--destination",
          "${MOSAR_FRONTEND_REPO}:${GIT_COMMIT}",
          "--force"
        ]
      }
    ]
  }
}

